"ご本人さま氏名","ご本人さま氏名（かな）","保護者さま氏名","保護者さま氏名（かな）","学年","性別","郵便番号1","郵便番号2","都道府県","住所","建物名・号室","電話番号","メールアドレス","メールアドレス（確認）","ご質問・ご要望等","プライバシーポリシーに同意する","問い合わせのページURL","問い合わせ日付","IPアドレス"
"大竹亜由美","おおたけあゆみ","大竹信一","おおたけしんいち","その他","女性","221",="0052","神奈川県","横浜市神奈川区栄町14-1","ライオンズ横浜ポートサイド308",="045-624-9322","ayu.otake@gmail.com","ayu.otake@gmail.com","","on","","2015/07/09 (Thu) 22:21:32","153.224.249.45"
"大竹信一","おおたけしんいち","大竹亜由美","おおたけあゆみ","中学1年","男性","221",="0052","神奈川県","横浜市神奈川区栄町","",="080-4801-6628","s.otake@neutrope.com","s.otake@neutrope.com","テスト","on","","2015/07/09 (Thu) 22:23:11","153.224.249.45"
